Importing data
…
tibble

iris %>% as_tibble()

# A tibble: 150 x 5
   Sepal.Length Sepal.Width Petal.Length Petal.Width Species
          <dbl>       <dbl>        <dbl>       <dbl>  <fctr>
 1          5.1         3.5          1.4         0.2  setosa
 2          4.9         3.0          1.4         0.2  setosa
 3          4.7         3.2          1.3         0.2  setosa
 4          4.6         3.1          1.5         0.2  setosa
 5          5.0         3.6          1.4         0.2  setosa
 6          5.4         3.9          1.7         0.4  setosa
 7          4.6         3.4          1.4         0.3  setosa
 8          5.0         3.4          1.5         0.2  setosa
 9          4.4         2.9          1.4         0.2  setosa
10          4.9         3.1          1.5         0.1  setosa
# ... with 140 more rows

tibble adjusts to width

iris %>% as_tibble()

# A tibble: 150 x 5
   Sepal.Length Sepal.Width
          <dbl>       <dbl>
 1          5.1         3.5
 2          4.9         3.0
 3          4.7         3.2
 4          4.6         3.1
 5          5.0         3.6
 6          5.4         3.9
 7          4.6         3.4
 8          5.0         3.4
 9          4.4         2.9
10          4.9         3.1
# ... with 140 more rows, and
#   3 more variables:
#   Petal.Length <dbl>,
#   Petal.Width <dbl>,
#   Species <fctr>
…
cols(
  mpg = col_double(),
  cyl = col_integer(),
  disp = col_double(),
  hp = col_integer(),
  drat = col_double(),
  wt = col_double(),
  qsec = col_double(),
  vs = col_integer(),
  am = col_integer(),
  gear = col_integer(),
  carb = col_integer()
)

# A tibble: 32 x 11
     mpg   cyl  disp    hp  drat    wt  qsec    vs    am  gear  carb
   <dbl> <int> <dbl> <int> <dbl> <dbl> <dbl> <int> <int> <int> <int>
 1  21.0     6 160.0   110  3.90 2.620 16.46     0     1     4     4
 2  21.0     6 160.0   110  3.90 2.875 17.02     0     1     4     4
 3  22.8     4 108.0    93  3.85 2.320 18.61     1     1     4     1
 4  21.4     6 258.0   110  3.08 3.215 19.44     1     0     3     1
 5  18.7     8 360.0   175  3.15 3.440 17.02     0     0     3     2
 6  18.1     6 225.0   105  2.76 3.460 20.22     1     0     3     1
 7  14.3     8 360.0   245  3.21 3.570 15.84     0     0     3     4
 8  24.4     4 146.7    62  3.69 3.190 20.00     1     0     4     2
 9  22.8     4 140.8    95  3.92 3.150 22.90     1     0     4     2
10  19.2     6 167.6   123  3.92 3.440 18.30     1     0     4     4
# ... with 22 more rows
…
import the mtcars.csv file again but

read in the number of cylinders as characters.

skip all columns except miles per gallon, cylinder and the number of gears

Answer

readr_example("mtcars.csv") %>%
  read_csv(col_types = cols_only(cyl = col_character(),
                                 mpg = col_double(),
                                 gear = col_integer()))

# A tibble: 32 x 3
    mpg   cyl  gear
  <dbl> <chr> <int>
1  21.0     6     4
2  21.0     6     4
3  22.8     4     4
4  21.4     6     3
# ... with 28 more rows

readr_example("mtcars.csv") %>%
  read_csv(col_types = "dc_______i_") 

# A tibble: 32 x 3
    mpg   cyl  gear
  <dbl> <chr> <int>
1  21.0     6     4
2  21.0     6     4
3  22.8     4     4
4  21.4     6     3
# ... with 28 more rows
…
To skip the first n rows

n_max argument

To stop reading after n rows

col_names argument

override column names

readr_example("mtcars.csv") %>%
  read_csv()

# A tibble: 32 x 11
    mpg   cyl  disp    hp  drat    wt  qsec    vs    am  gear  carb
  <dbl> <int> <dbl> <int> <dbl> <dbl> <dbl> <int> <int> <int> <int>
1  21.0     6   160   110  3.90 2.620 16.46     0     1     4     4
2  21.0     6   160   110  3.90 2.875 17.02     0     1     4     4
3  22.8     4   108    93  3.85 2.320 18.61     1     1     4     1
4  21.4     6   258   110  3.08 3.215 19.44     1     0     3     1
# ... with 28 more rows
…
the deaths dataset

use the deaths.xls file (using readxl_example("deaths.xlsx") to get the path to it)

how many sheets does the file contain?

import the first sheet of the file.

are you happy with the result?

readxl_example("deaths.xlsx") %>%
  read_excel(sheet = 1)

# A tibble: 18 x 6
              `Lots of people`       X__1  X__2     X__3          X__4
                         <chr>      <chr> <chr>    <chr>         <chr>
1 simply cannot resist writing       <NA>  <NA>     <NA>          <NA>
2                           at        the   top     <NA>            of
3                           or    merging  <NA>     <NA>          <NA>
4                         Name Profession   Age Has kids Date of birth
5                  David Bowie   musician    69     TRUE         17175
6                Carrie Fisher      actor    60     TRUE         20749
7                  Chuck Berry   musician    90     TRUE          9788
8                  Bill Paxton      actor    61     TRUE         20226
# ... with 10 more rows, and 1 more variables: X__5 <chr>
…
