Data plotting
…
R tidyverse workshop
Motivation for this layered system 
 football example

Data visualisation is not meant just to be seen but to be read, like written text - Alberto Cairo

Using the following dataset

library(tidyverse)
allSeasons <- read_rds("allseasons.rds")
oneSeason <- allSeasons %>% filter(year == 2016)
allSeasons

# A tibble: 1,556 × 12
            club score  year country     n  rank allRank   atb   atw    eb
           <chr> <int> <int>   <chr> <int> <int>   <int> <int> <int> <int>
1      ManUnited  1876  2001     ENG    20     1       6  2031  1831  1927
2      Liverpool  1876  2001     ENG    20     2       5  2020  1826  1918
3          Leeds  1843  2001     ENG    20     3      11  1979  1793  1880
4        Arsenal  1820  2001     ENG    20     4      14  1946  1776  1868
5        Chelsea  1794  2001     ENG    20     5      18  1860  1738  1865
6        Ipswich  1744  2001     ENG    20     6      31  1830  1710  1840
7     Sunderland  1732  2001     ENG    20     7      34  1802  1688  1813
8     AstonVilla  1725  2001     ENG    20     8      42  1775  1667  1796
9      Newcastle  1704  2001     ENG    20     9      46  1765  1663  1792
10 Middlesbrough  1699  2001     ENG    20    10      49  1737  1661  1791
# ... with 1,546 more rows, and 2 more variables: ew <int>, tenth <int>
…
R tidyverse workshop
your turn

R tidyverse workshop
iris dataset

iris <- as_tibble(iris)
iris

# A tibble: 150 × 5
   Sepal.Length Sepal.Width Petal.Length Petal.Width Species
          <dbl>       <dbl>        <dbl>       <dbl>  <fctr>
1           5.1         3.5          1.4         0.2  setosa
2           4.9         3.0          1.4         0.2  setosa
3           4.7         3.2          1.3         0.2  setosa
4           4.6         3.1          1.5         0.2  setosa
5           5.0         3.6          1.4         0.2  setosa
6           5.4         3.9          1.7         0.4  setosa
7           4.6         3.4          1.4         0.3  setosa
8           5.0         3.4          1.5         0.2  setosa
9           4.4         2.9          1.4         0.2  setosa
10          4.9         3.1          1.5         0.1  setosa
# ... with 140 more rows
…
