Data transformation
…
Important with large tables

gene_by_exon <- as_tibble(gene_by_exon)
gene_by_exon

# A tibble: 2,417 x 9
   ensembl_gene_id ensembl_transcript_id chromosome_name start_position
             <chr>                 <chr>           <int>          <int>
 1 ENSG00000264452       ENST00000583496              21       44439035
 2 ENSG00000274046       ENST00000617336              21        7092616
 3 ENSG00000278775       ENST00000619112              21        8433085
 4 ENSG00000276873       ENST00000616808              21       39171462
 5 ENSG00000236545       ENST00000458654              21       41870633
 6 ENSG00000160255       ENST00000302347              21       44885953
 7 ENSG00000160255       ENST00000518033              21       44885953
 8 ENSG00000160255       ENST00000523126              21       44885953
 9 ENSG00000160255       ENST00000521995              21       44885953
10 ENSG00000160255       ENST00000397846              21       44885953
# ... with 2,407 more rows, and 5 more variables: end_position <int>,
#   hgnc_symbol <chr>, hgnc_id <chr>, strand <int>, gene_biotype <chr>
…
select() is part of the biomaRt package, need to address dplyr-package!

gene_by_exon %>%
  dplyr::select(hgnc_symbol, chromosome_name, start_position, end_position)

# A tibble: 2,417 x 4
   hgnc_symbol chromosome_name start_position end_position
         <chr>           <int>          <int>        <int>
 1                          21       44439035     44439110
 2                          21        7092616      7092716
 3                          21        8433085      8433174
 4                          21       39171462     39171560
 5                          21       41870633     41872054
 6       ITGB2              21       44885953     44931989
 7       ITGB2              21       44885953     44931989
 8       ITGB2              21       44885953     44931989
 9       ITGB2              21       44885953     44931989
10       ITGB2              21       44885953     44931989
# ... with 2,407 more rows
…
Dropping columns

We can drop columns by "negating" their names. Since helpers give us column names, we can negate them too. Note that the

gene_by_exon %>%
  dplyr::select(-strand, -starts_with("ensembl"),
         -ends_with("id"))

# A tibble: 2,417 x 5
   chromosome_name start_position end_position hgnc_symbol   gene_biotype
             <int>          <int>        <int>       <chr>          <chr>
 1              21       44439035     44439110                     snoRNA
 2              21        7092616      7092716                   misc_RNA
 3              21        8433085      8433174                   misc_RNA
 4              21       39171462     39171560                   misc_RNA
 5              21       41870633     41872054                  antisense
 6              21       44885953     44931989       ITGB2 protein_coding
 7              21       44885953     44931989       ITGB2 protein_coding
 8              21       44885953     44931989       ITGB2 protein_coding
 9              21       44885953     44931989       ITGB2 protein_coding
10              21       44885953     44931989       ITGB2 protein_coding
# ... with 2,407 more rows
…
Genes in a particular range

# Comma separated conditions are combined with '&'
gene_by_exon %>%
  filter(start_position > 10000000, end_position < 12000000) %>% 
  dplyr::select(hgnc_symbol, start_position, end_position)

# A tibble: 21 x 3
   hgnc_symbol start_position end_position
         <chr>          <int>        <int>
 1 IGHV1OR21-1       10649400     10649835
 2       BAGE2       10413477     10516431
 3       BAGE2       10413477     10516431
 4       BAGE2       10413477     10516431
 5                   10482738     10605716
 6                   10397644     10397778
 7                   10328411     10342737
 8                   10328411     10342737
 9                   10136419     10137004
10  SLC25A15P4       10612455     10613379
# ... with 11 more rows
…
Genes close to the telomers

gene_by_exon %>%
  filter(start_position < 7000000 | end_position >46665124 )

# A tibble: 131 x 9
   ensembl_gene_id ensembl_transcript_id chromosome_name start_position
             <chr>                 <chr>           <int>          <int>
 1 ENSG00000284550       ENST00000616627              21        6859171
 2 ENSG00000275496       ENST00000621924              21        6228966
 3 ENSG00000275496       ENST00000617746              21        6228966
 4 ENSG00000275496       ENST00000624446              21        6228966
 5 ENSG00000275496       ENST00000623405              21        6228966
 6 ENSG00000275496       ENST00000623575              21        6228966
 7 ENSG00000275496       ENST00000623506              21        6228966
 8 ENSG00000275496       ENST00000619488              21        6228966
 9 ENSG00000279064       ENST00000623723              21        5707004
10 ENSG00000276076       ENST00000619537              21        6560714
# ... with 121 more rows, and 5 more variables: end_position <int>,
#   hgnc_symbol <chr>, hgnc_id <chr>, strand <int>, gene_biotype <chr>
…
The two below are equivalent

For larger operations use inner_join()

Set operations

gene_by_exon %>%
  filter(is.element(hgnc_symbol, c("APP", "ATP50", "PRMT2")))

# A tibble: 33 x 9
   ensembl_gene_id ensembl_transcript_id chromosome_name start_position
             <chr>                 <chr>           <int>          <int>
 1 ENSG00000160310       ENST00000355680              21       46635167
 2 ENSG00000160310       ENST00000397638              21       46635167
 3 ENSG00000160310       ENST00000291705              21       46635167
 4 ENSG00000160310       ENST00000397637              21       46635167
 5 ENSG00000160310       ENST00000334494              21       46635167
 6 ENSG00000160310       ENST00000397628              21       46635167
 7 ENSG00000160310       ENST00000440086              21       46635167
 8 ENSG00000160310       ENST00000482508              21       46635167
 9 ENSG00000160310       ENST00000481861              21       46635167
10 ENSG00000160310       ENST00000455177              21       46635167
# ... with 23 more rows, and 5 more variables: end_position <int>,
#   hgnc_symbol <chr>, hgnc_id <chr>, strand <int>, gene_biotype <chr>

Set operations

gene_by_exon %>%
  filter(hgnc_symbol %in% c("APP", "ATP50", "PRMT2"))

# A tibble: 33 x 9
   ensembl_gene_id ensembl_transcript_id chromosome_name start_position
             <chr>                 <chr>           <int>          <int>
 1 ENSG00000160310       ENST00000355680              21       46635167
 2 ENSG00000160310       ENST00000397638              21       46635167
 3 ENSG00000160310       ENST00000291705              21       46635167
 4 ENSG00000160310       ENST00000397637              21       46635167
 5 ENSG00000160310       ENST00000334494              21       46635167
 6 ENSG00000160310       ENST00000397628              21       46635167
 7 ENSG00000160310       ENST00000440086              21       46635167
 8 ENSG00000160310       ENST00000482508              21       46635167
 9 ENSG00000160310       ENST00000481861              21       46635167
10 ENSG00000160310       ENST00000455177              21       46635167
# ... with 23 more rows, and 5 more variables: end_position <int>,
#   hgnc_symbol <chr>, hgnc_id <chr>, strand <int>, gene_biotype <chr>
…
Perform a nested sorting of all Genes:

1. hgnc_symbol
2. gene_biotype
3. end_position

gene_by_exon %>%
  arrange(hgnc_symbol, gene_biotype, end_position) %>% 
  dplyr::select(hgnc_symbol, gene_biotype, end_position, everything())

# A tibble: 2,417 x 9
   hgnc_symbol gene_biotype end_position ensembl_gene_id
         <chr>        <chr>        <int>           <chr>
 1                antisense      5087867 ENSG00000279687
 2                antisense     14144468 ENSG00000224905
 3                antisense     14144468 ENSG00000224905
 4                antisense     14144468 ENSG00000224905
 5                antisense     14947096 ENSG00000235277
 6                antisense     14964233 ENSG00000229047
 7                antisense     14992854 ENSG00000231201
 8                antisense     17810845 ENSG00000244676
 9                antisense     17810845 ENSG00000244676
10                antisense     21226829 ENSG00000226771
# ... with 2,407 more rows, and 5 more variables:
#   ensembl_transcript_id <chr>, chromosome_name <int>,
#   start_position <int>, hgnc_id <chr>, strand <int>
…
Find the last gene on chromosome 21.

gene_by_exon %>%
  arrange(desc(end_position)) %>%
  dplyr::select(end_position, everything()) # way to reorder arr_delay 1st column

# A tibble: 2,417 x 9
   end_position ensembl_gene_id ensembl_transcript_id chromosome_name
          <int>           <chr>                 <chr>           <int>
 1     46691226 ENSG00000212932       ENST00000427757              21
 2     46665124 ENSG00000160310       ENST00000355680              21
 3     46665124 ENSG00000160310       ENST00000397638              21
 4     46665124 ENSG00000160310       ENST00000291705              21
 5     46665124 ENSG00000160310       ENST00000397637              21
 6     46665124 ENSG00000160310       ENST00000334494              21
 7     46665124 ENSG00000160310       ENST00000397628              21
 8     46665124 ENSG00000160310       ENST00000440086              21
 9     46665124 ENSG00000160310       ENST00000482508              21
10     46665124 ENSG00000160310       ENST00000481861              21
# ... with 2,407 more rows, and 5 more variables: start_position <int>,
#   hgnc_symbol <chr>, hgnc_id <chr>, strand <int>, gene_biotype <chr>

gene_by_exon %>%
  dplyr::select(hgnc_symbol, 
                starts_with("ensembl"),
                contains("position"),
                -contains("transcript"))

# A tibble: 2,417 x 4
   hgnc_symbol ensembl_gene_id start_position end_position
         <chr>           <chr>          <int>        <int>
 1             ENSG00000264452       44439035     44439110
 2             ENSG00000274046        7092616      7092716
 3             ENSG00000278775        8433085      8433174
 4             ENSG00000276873       39171462     39171560
 5             ENSG00000236545       41870633     41872054
 6       ITGB2 ENSG00000160255       44885953     44931989
 7       ITGB2 ENSG00000160255       44885953     44931989
 8       ITGB2 ENSG00000160255       44885953     44931989
 9       ITGB2 ENSG00000160255       44885953     44931989
10       ITGB2 ENSG00000160255       44885953     44931989
# ... with 2,407 more rows
…
Rename columns with rename(new_name = old_name).

To keep the order correct, read/remember the renaming = as "was".

Rename will replace column names

gene_by_exon %>%
  rename(stop = end_position, start = start_position)

# A tibble: 2,417 x 9
   ensembl_gene_id ensembl_transcript_id chromosome_name    start     stop
             <chr>                 <chr>           <int>    <int>    <int>
 1 ENSG00000264452       ENST00000583496              21 44439035 44439110
 2 ENSG00000274046       ENST00000617336              21  7092616  7092716
 3 ENSG00000278775       ENST00000619112              21  8433085  8433174
 4 ENSG00000276873       ENST00000616808              21 39171462 39171560
 5 ENSG00000236545       ENST00000458654              21 41870633 41872054
 6 ENSG00000160255       ENST00000302347              21 44885953 44931989
 7 ENSG00000160255       ENST00000518033              21 44885953 44931989
 8 ENSG00000160255       ENST00000523126              21 44885953 44931989
 9 ENSG00000160255       ENST00000521995              21 44885953 44931989
10 ENSG00000160255       ENST00000397846              21 44885953 44931989
# ... with 2,407 more rows, and 4 more variables: hgnc_symbol <chr>,
#   hgnc_id <chr>, strand <int>, gene_biotype <chr>
…
Gene length

Note that new variables can be used right away

gene_by_exon %>%
  mutate(  length = end_position - start_position) %>% 
  dplyr::select(hgnc_symbol, length)  

# A tibble: 2,417 x 2
   hgnc_symbol length
         <chr>  <int>
 1                 75
 2                100
 3                 89
 4                 98
 5               1421
 6       ITGB2  46036
 7       ITGB2  46036
 8       ITGB2  46036
 9       ITGB2  46036
10       ITGB2  46036
# ... with 2,407 more rows
…
This is not a gene set for statistics

gene_by_exon %>%
  filter(gene_biotype == "protein_coding") %>% 
  mutate(  length = end_position - start_position) %>% 
  dplyr::select(hgnc_symbol, length) %>% 
  distinct()

# A tibble: 232 x 2
   hgnc_symbol length
         <chr>  <int>
 1       ITGB2  46036
 2       S100B   6246
 3       DIP2A 110953
 4   KRTAP12-2    738
 5   KRTAP12-4    446
 6        PCNT 121647
 7   KRTAP12-3    409
 8   KRTAP10-6   1237
 9   KRTAP12-1    587
10   KRTAP10-2   1148
# ... with 222 more rows
…
Usage

Use the select helpers with mutate_at()

Use column conditions for mutate_if()

vars() to wrap variables and funs() to wrap functions

Coordinate conversion

gene_by_exon %>% 
  mutate_at(vars(contains("position")), funs(. + 1))

# A tibble: 2,417 x 9
   ensembl_gene_id ensembl_transcript_id chromosome_name start_position
             <chr>                 <chr>           <int>          <dbl>
 1 ENSG00000264452       ENST00000583496              21       44439036
 2 ENSG00000274046       ENST00000617336              21        7092617
 3 ENSG00000278775       ENST00000619112              21        8433086
 4 ENSG00000276873       ENST00000616808              21       39171463
 5 ENSG00000236545       ENST00000458654              21       41870634
 6 ENSG00000160255       ENST00000302347              21       44885954
 7 ENSG00000160255       ENST00000518033              21       44885954
 8 ENSG00000160255       ENST00000523126              21       44885954
 9 ENSG00000160255       ENST00000521995              21       44885954
10 ENSG00000160255       ENST00000397846              21       44885954
# ... with 2,407 more rows, and 5 more variables: end_position <dbl>,
#   hgnc_symbol <chr>, hgnc_id <chr>, strand <int>, gene_biotype <chr>

Coordinate conversion

gene_by_exon %>% 
  mutate_if(is.numeric, funs(. + 1))

# A tibble: 2,417 x 9
   ensembl_gene_id ensembl_transcript_id chromosome_name start_position
             <chr>                 <chr>           <dbl>          <dbl>
 1 ENSG00000264452       ENST00000583496              22       44439036
 2 ENSG00000274046       ENST00000617336              22        7092617
 3 ENSG00000278775       ENST00000619112              22        8433086
 4 ENSG00000276873       ENST00000616808              22       39171463
 5 ENSG00000236545       ENST00000458654              22       41870634
 6 ENSG00000160255       ENST00000302347              22       44885954
 7 ENSG00000160255       ENST00000518033              22       44885954
 8 ENSG00000160255       ENST00000523126              22       44885954
 9 ENSG00000160255       ENST00000521995              22       44885954
10 ENSG00000160255       ENST00000397846              22       44885954
# ... with 2,407 more rows, and 5 more variables: end_position <dbl>,
#   hgnc_symbol <chr>, hgnc_id <chr>, strand <dbl>, gene_biotype <chr>
…
Not a summarising transformation but frequently used in conjunction

Grouping by more than one or more variables

Use ungroup()

Let's compute the average number of transcripts

gene_by_exon %>%
  group_by(ensembl_gene_id, hgnc_symbol) %>% 
  summarise(nexon =n_distinct(ensembl_transcript_id))

# A tibble: 841 x 3
# Groups:   ensembl_gene_id [?]
   ensembl_gene_id hgnc_symbol nexon
             <chr>       <chr> <int>
 1 ENSG00000141956      PRDM15    16
 2 ENSG00000141959        PFKL    12
 3 ENSG00000142149        HUNK     4
 4 ENSG00000142156      COL6A1     7
 5 ENSG00000142166      IFNAR1     3
 6 ENSG00000142168        SOD1     4
 7 ENSG00000142173      COL6A2     8
 8 ENSG00000142178        SIK1     2
 9 ENSG00000142182      DNMT3L     4
10 ENSG00000142185       TRPM2     8
# ... with 831 more rows
…
     Var1 Freq
1          454
2   AATBC    3
3  ABCC13    6
4   ABCG1   11
5 ADAMTS1    6
6 ADAMTS5    1

count() does the grouping for you

gene_by_exon %>%
  count(hgnc_symbol)

# A tibble: 522 x 2
   hgnc_symbol     n
         <chr> <int>
 1               454
 2       AATBC     3
 3      ABCC13     6
 4       ABCG1    11
 5     ADAMTS1     6
 6     ADAMTS5     1
 7      ADARB1    15
 8      AGPAT3    18
 9        AIRE     5
10 ANKRD20A11P     6
# ... with 512 more rows
…
gene_interest <- tribble(~symbol, ~gene_interest, 
                   "ATP50", "yes",
                   "APP",   "yes",
                   "DIP2A", "yes",
                   "TP53",  "yes")

Inner join

gene_by_exon %>% 
  inner_join(gene_interest, 
             by = c("hgnc_symbol"="symbol")) 

# A tibble: 29 x 10
   ensembl_gene_id ensembl_transcript_id chromosome_name start_position
             <chr>                 <chr>           <int>          <int>
 1 ENSG00000160305       ENST00000400274              21       46458899
 2 ENSG00000160305       ENST00000457905              21       46458899
 3 ENSG00000160305       ENST00000466639              21       46458899
 4 ENSG00000160305       ENST00000435722              21       46458899
 5 ENSG00000160305       ENST00000417564              21       46458899
 6 ENSG00000160305       ENST00000473752              21       46458899
 7 ENSG00000160305       ENST00000494435              21       46458899
 8 ENSG00000160305       ENST00000480553              21       46458899
 9 ENSG00000160305       ENST00000472364              21       46458899
10 ENSG00000160305       ENST00000481883              21       46458899
# ... with 19 more rows, and 6 more variables: end_position <int>,
#   hgnc_symbol <chr>, hgnc_id <chr>, strand <int>, gene_biotype <chr>,
#   gene_interest <chr>

  # provide the equivalence since columns have a different name

Outer join

gene_by_exon %>% 
  full_join(gene_interest, 
             by = c("hgnc_symbol"="symbol")) 

# A tibble: 2,419 x 10
   ensembl_gene_id ensembl_transcript_id chromosome_name start_position
             <chr>                 <chr>           <int>          <int>
 1 ENSG00000264452       ENST00000583496              21       44439035
 2 ENSG00000274046       ENST00000617336              21        7092616
 3 ENSG00000278775       ENST00000619112              21        8433085
 4 ENSG00000276873       ENST00000616808              21       39171462
 5 ENSG00000236545       ENST00000458654              21       41870633
 6 ENSG00000160255       ENST00000302347              21       44885953
 7 ENSG00000160255       ENST00000518033              21       44885953
 8 ENSG00000160255       ENST00000523126              21       44885953
 9 ENSG00000160255       ENST00000521995              21       44885953
10 ENSG00000160255       ENST00000397846              21       44885953
# ... with 2,409 more rows, and 6 more variables: end_position <int>,
#   hgnc_symbol <chr>, hgnc_id <chr>, strand <int>, gene_biotype <chr>,
#   gene_interest <chr>
…
