Data processing with R tidyverse
…
  Sepal.Length Sepal.Width Petal.Length Petal.Width Species
1          5.1         3.5          1.4         0.2  setosa
2          4.9         3.0          1.4         0.2  setosa
3          4.7         3.2          1.3         0.2  setosa

gather

library("tidyverse")
iris_melt <- iris %>%
  rownames_to_column(var = "number") %>%
  as_tibble() %>%
  gather(flower, measure, contains("al"))
iris_melt

# A tibble: 600 × 4
   number Species       flower measure
    <chr>  <fctr>        <chr>   <dbl>
1       1  setosa Sepal.Length     5.1
2       2  setosa Sepal.Length     4.9
3       3  setosa Sepal.Length     4.7
4       4  setosa Sepal.Length     4.6
5       5  setosa Sepal.Length     5.0
6       6  setosa Sepal.Length     5.4
7       7  setosa Sepal.Length     4.6
8       8  setosa Sepal.Length     5.0
9       9  setosa Sepal.Length     4.4
10     10  setosa Sepal.Length     4.9
# ... with 590 more rows

spread

iris_melt %>%
  spread(flower, measure)

# A tibble: 150 × 6
   number    Species Petal.Length Petal.Width Sepal.Length Sepal.Width
*   <chr>     <fctr>        <dbl>       <dbl>        <dbl>       <dbl>
1       1     setosa          1.4         0.2          5.1         3.5
2      10     setosa          1.5         0.1          4.9         3.1
3     100 versicolor          4.1         1.3          5.7         2.8
4     101  virginica          6.0         2.5          6.3         3.3
5     102  virginica          5.1         1.9          5.8         2.7
6     103  virginica          5.9         2.1          7.1         3.0
7     104  virginica          5.6         1.8          6.3         2.9
8     105  virginica          5.8         2.2          6.5         3.0
9     106  virginica          6.6         2.1          7.6         3.0
10    107  virginica          4.5         1.7          4.9         2.5
# ... with 140 more rows
…
