Data handling
…
R tidyverse workshop
Keep related things together 
 nest

Nest per country

by_country <- gapminder %>%
  mutate(year1950 = year - 1950) %>%
  group_by(continent, country) %>%
  nest()
by_country

# A tibble: 142 × 3
   continent     country              data
      <fctr>      <fctr>            <list>
1       Asia Afghanistan <tibble [12 × 5]>
2     Europe     Albania <tibble [12 × 5]>
3     Africa     Algeria <tibble [12 × 5]>
4     Africa      Angola <tibble [12 × 5]>
5   Americas   Argentina <tibble [12 × 5]>
6    Oceania   Australia <tibble [12 × 5]>
7     Europe     Austria <tibble [12 × 5]>
8       Asia     Bahrain <tibble [12 × 5]>
9       Asia  Bangladesh <tibble [12 × 5]>
10    Europe     Belgium <tibble [12 × 5]>
# ... with 132 more rows
…
R tidyverse workshop
Keep related things together 
 linear models

Linear model per country

by_country_lm <- by_country %>%
  mutate(model = map(data, ~ lm(lifeExp ~ year1950, data = .x)))
by_country_lm

# A tibble: 142 × 4
   continent     country              data    model
      <fctr>      <fctr>            <list>   <list>
1       Asia Afghanistan <tibble [12 × 5]> <S3: lm>
2     Europe     Albania <tibble [12 × 5]> <S3: lm>
3     Africa     Algeria <tibble [12 × 5]> <S3: lm>
4     Africa      Angola <tibble [12 × 5]> <S3: lm>
5   Americas   Argentina <tibble [12 × 5]> <S3: lm>
6    Oceania   Australia <tibble [12 × 5]> <S3: lm>
7     Europe     Austria <tibble [12 × 5]> <S3: lm>
8       Asia     Bahrain <tibble [12 × 5]> <S3: lm>
9       Asia  Bangladesh <tibble [12 × 5]> <S3: lm>
10    Europe     Belgium <tibble [12 × 5]> <S3: lm>
# ... with 132 more rows
…
intercept

\(r^2\)

residuals

library("broom")
models <- by_country_lm %>%
  mutate(glance  = map(model, glance),
         rsq     = glance %>% map_dbl("r.squared"),
         tidy    = map(model, tidy),
         augment = map(model, augment))
models

# A tibble: 142 × 8
   continent     country              data    model                glance
      <fctr>      <fctr>            <list>   <list>                <list>
1       Asia Afghanistan <tibble [12 × 5]> <S3: lm> <data.frame [1 × 11]>
2     Europe     Albania <tibble [12 × 5]> <S3: lm> <data.frame [1 × 11]>
3     Africa     Algeria <tibble [12 × 5]> <S3: lm> <data.frame [1 × 11]>
4     Africa      Angola <tibble [12 × 5]> <S3: lm> <data.frame [1 × 11]>
5   Americas   Argentina <tibble [12 × 5]> <S3: lm> <data.frame [1 × 11]>
6    Oceania   Australia <tibble [12 × 5]> <S3: lm> <data.frame [1 × 11]>
7     Europe     Austria <tibble [12 × 5]> <S3: lm> <data.frame [1 × 11]>
8       Asia     Bahrain <tibble [12 × 5]> <S3: lm> <data.frame [1 × 11]>
9       Asia  Bangladesh <tibble [12 × 5]> <S3: lm> <data.frame [1 × 11]>
10    Europe     Belgium <tibble [12 × 5]> <S3: lm> <data.frame [1 × 11]>
# ... with 132 more rows, and 3 more variables: rsq <dbl>, tidy <list>,
#   augment <list>
…
