Practical data transformation
…
Solution

gene_by_exon %>% 
  dplyr::select(-ensembl_transcript_id, -ensembl_exon_id) %>% 
  distinct()-> genes

Sort the genes by their length.

Solution

gene_by_exon %>%
  mutate(length=end_position-start_position) %>% 
  arrange(length)

## # A tibble: 19,330 × 12
##    ensembl_gene_id ensembl_transcript_id ensembl_exon_id chromosome_name
##              <chr>                 <chr>           <chr>           <int>
## 1  ENSG00000266692       ENST00000581669 ENSE00002724833              21
## 2  ENSG00000275523       ENST00000611656 ENSE00003745719              21
## 3  ENSG00000264063       ENST00000577708 ENSE00002724720              21
## 4  ENSG00000277437       ENST00000614492 ENSE00003754026              21
## 5  ENSG00000275167       ENST00000611994 ENSE00003717901              21
## 6  ENSG00000283904       ENST00000385060 ENSE00001500066              21
## 7  ENSG00000284448       ENST00000290239 ENSE00003729123              21
## 8  ENSG00000275166       ENST00000622292 ENSE00003738277              21
## 9  ENSG00000201025       ENST00000364155 ENSE00001438918              21
## 10 ENSG00000263681       ENST00000582241 ENSE00002698395              21
## # ... with 19,320 more rows, and 8 more variables: start_position <int>,
## #   end_position <int>, hgnc_symbol <chr>, hgnc_id <chr>, strand <int>,
## #   gene_biotype <chr>, phenotype_description <chr>, length <int>
…
What is the most frequent single word in the phenotype description on chromosome 21? Split the column using separate, gather the columns and count in a single dplyr statement.

Solution

gene_by_exon %>% 
  dplyr::select(phenotype_description) %>% 
  distinct() %>% 
  filter(!is.na(phenotype_description)) %>% 
  separate(phenotype_description , LETTERS[1:15], extra="drop", fill="right") %>% 
  gather(everything(), key="position", value="word") %>% 
  mutate(word=tolower(word)) %>% 
  count(word) %>% 
  arrange(desc(n))

## # A tibble: 207 × 2
##          word     n
##         <chr> <int>
## 1        <NA>  1014
## 2    syndrome    22
## 3        type    16
## 4  deficiency    13
## 5          to    12
## 6   autosomal    11
## 7       early     9
## 8    cataract     8
## 9           1     7
## 10    disease     7
## # ... with 197 more rows
