practical ggplot2
…
comment should be discarded.

chromosome will be read as integers since first 1000 lines are 1. But, X, Y are at the file’s end.

first and last column names are unclean. #chrom comtains a hash and length (kb). Would be neater to fix this upfront.

Solution

cnv <- read_tsv("data/CNV.seg.gz", skip = 2,
                col_names = c("chr", "start", "end", "state", "length_kb"),
                col_types = cols(chr = col_character()))
cnv

## # A tibble: 19,288 × 5
##      chr  start    end state length_kb
##    <chr>  <int>  <int> <int>     <int>
## 1      1      0  11000     0        11
## 2      1  11000 178000     2       167
## 3      1 178000 227000     0        49
## 4      1 227000 268000     2        41
## 5      1 268000 317000     0        49
## 6      1 317000 472000     2       155
## 7      1 472000 522000     0        50
## 8      1 522000 606000     2        84
## 9      1 606000 609000     0         3
## 10     1 609000 611000     2         2
## # ... with 19,278 more rows
…
