Project
…
## Warning in inner_join_impl(x, y, by$x, by$y, suffix$x, suffix$y,
## accept_na_match): joining character vector and factor, coercing into
## character vector

Perform the 677 linear models, tidy the results and arrange by the adj.r.squared

Solution

all_mir_rna_expression %>%
  group_by(ID) %>%
   do(glance(lm(rna_expression ~ mir_expression, data = .))) %>%
  ungroup() %>%
  arrange(desc(adj.r.squared))

## # A tibble: 677 × 12
##                   ID r.squared adj.r.squared     sigma statistic
##                <chr>     <dbl>         <dbl>     <dbl>     <dbl>
## 1     hsa-miR-378_st 0.5337446     0.5275279 0.7137146  85.85605
## 2    hsa-miR-422a_st 0.3880594     0.3799002 0.8176497  47.56092
## 3     hsa-miR-215_st 0.3649550     0.3564878 0.8329423  43.10187
## 4     hsa-miR-145_st 0.3239984     0.3149851 0.8593825  35.94649
## 5     hsa-miR-183_st 0.3066374     0.2973925 0.8703479  33.16851
## 6      hsa-miR-17_st 0.2964648     0.2870843 0.8767093  31.60447
## 7    hsa-miR-106a_st 0.2875369     0.2780374 0.8822545  30.26861
## 8  hsa-miR-140-3p_st 0.2812168     0.2716330 0.8861589  29.34301
## 9     hsa-miR-138_st 0.2693901     0.2596486 0.8934195  27.65396
## 10 hsa-miR-139-5p_st 0.2689871     0.2592402 0.8936659  27.59736
## # ... with 667 more rows, and 7 more variables: p.value <dbl>, df <int>,
## #   logLik <dbl>, AIC <dbl>, BIC <dbl>, deviance <dbl>, df.residual <int>
…
