purrr practical
…
These qPCR results were obtained from 2 different samples and were replicated 5 times. They are stored in 10 different files. A filename looks like “mlc1_1.csv” where the first number is the sample id and the second the replicate id.

Read in the qPCR results

Identify the file format

Using a text editor or RStudio, try to identify how the flat file has been encoded.

Try to import the file mlc1_1.csv using the read_delim() function.

Solution

read_delim(file.path("data", "pcr", "mlc1_1.csv"), delim = " ")

## # A tibble: 96 × 5
##     well   gene    Ct  type  flag
##    <chr>  <chr> <dbl> <chr> <chr>
## 1     A1  gene1 33.60  data    OK
## 2     A2  gene2 22.42  data    OK
## 3     A3  gene3 31.84  data    OK
## 4     A4  gene4 30.25  data    OK
## 5     A5  gene5 33.14  data    OK
## 6     A6  gene6 33.80  data    OK
## 7     A7  gene7 31.05  data    OK
## 8     A8  gene8 16.29  data    OK
## 9     A9  gene9 32.59  data    OK
## 10   A10 gene10 30.13  data    OK
## # ... with 86 more rows
…
Now use map() from the purrr package to import all files.

What is the type of the output (you might want to use glimpse())

Are you able to identify from which file each element has been imported ?

Solution

options(tibble.print_min = 3)
list.files(file.path("data", "pcr"), full.names = TRUE) %>%
  map(read_delim, delim = " ")

## [[1]]
## # A tibble: 96 × 5
##    well  gene    Ct  type  flag
##   <chr> <chr> <dbl> <chr> <chr>
## 1    A1 gene1 33.60  data    OK
## 2    A2 gene2 22.42  data    OK
## 3    A3 gene3 31.84  data    OK
## # ... with 93 more rows
## 
## [[2]]
## # A tibble: 96 × 5
##    well  gene    Ct  type  flag
##   <chr> <chr> <dbl> <chr> <chr>
## 1    A1 gene1 33.60  data    OK
## 2    A2 gene2 22.42  data    OK
## 3    A3 gene3 31.84  data    OK
## # ... with 93 more rows
## 
## [[3]]
## # A tibble: 96 × 5
##    well  gene    Ct  type  flag
##   <chr> <chr> <dbl> <chr> <chr>
## 1    A1 gene1 36.08  data    OK
## 2    A2 gene2 21.73  data    OK
## 3    A3 gene3 33.45  data    OK
## # ... with 93 more rows
## 
## [[4]]
## # A tibble: 96 × 5
##    well  gene    Ct  type  flag
##   <chr> <chr> <dbl> <chr> <chr>
## 1    A1 gene1 34.29  data    OK
## 2    A2 gene2 21.85  data    OK
## 3    A3 gene3 31.72  data    OK
## # ... with 93 more rows
## 
## [[5]]
## # A tibble: 96 × 5
##    well  gene    Ct  type  flag
##   <chr> <chr> <dbl> <chr> <chr>
## 1    A1 gene1 34.83  data    OK
## 2    A2 gene2 22.70  data    OK
## 3    A3 gene3 30.75  data    OK
## # ... with 93 more rows
## 
## [[6]]
## # A tibble: 96 × 5
##    well  gene    Ct  type  flag
##   <chr> <chr> <dbl> <chr> <chr>
## 1    A1 gene1 32.83  data    OK
## 2    A2 gene2 23.35  data    OK
## 3    A3 gene3 30.60  data    OK
## # ... with 93 more rows
## 
## [[7]]
## # A tibble: 96 × 5
##    well  gene    Ct  type  flag
##   <chr> <chr> <dbl> <chr> <chr>
## 1    A1 gene1 32.37  data    OK
## 2    A2 gene2 21.90  data    OK
## 3    A3 gene3 30.72  data    OK
## # ... with 93 more rows
## 
## [[8]]
## # A tibble: 96 × 5
##    well  gene    Ct  type  flag
##   <chr> <chr> <dbl> <chr> <chr>
## 1    A1 gene1 34.97  data    OK
## 2    A2 gene2 22.89  data    OK
## 3    A3 gene3 34.18  data    OK
## # ... with 93 more rows
## 
## [[9]]
## # A tibble: 96 × 5
##    well  gene    Ct  type  flag
##   <chr> <chr> <dbl> <chr> <chr>
## 1    A1 gene1 34.26  data    OK
## 2    A2 gene2 22.93  data    OK
## 3    A3 gene3 31.96  data    OK
## # ... with 93 more rows
## 
## [[10]]
## # A tibble: 96 × 5
##    well  gene    Ct  type  flag
##   <chr> <chr> <dbl> <chr> <chr>
## 1    A1 gene1 33.77  data    OK
## 2    A2 gene2 23.54  data    OK
## 3    A3 gene3 29.97  data    OK
## # ... with 93 more rows
…
##  [1] "mlc1_1" "mlc1_2" "mlc1_3" "mlc1_4" "mlc1_5" "mlc2_1" "mlc2_2"
##  [8] "mlc2_3" "mlc2_4" "mlc2_5"

Getting a single tibble out of all files would be much handier. Instead of further transforming this output we will use another member of the map() family of functions that will immediately create the desired output. Replace your call to map() in your previous code by the alternative member of the family to get a data frame directly.

Solution

list.files(file.path("data", "pcr"), full.names = TRUE) %>%
  set_names() %>% 
  map_df(read_delim, delim = " ")

## # A tibble: 960 × 5
##    well  gene    Ct  type  flag
##   <chr> <chr> <dbl> <chr> <chr>
## 1    A1 gene1 33.60  data    OK
## 2    A2 gene2 22.42  data    OK
## 3    A3 gene3 31.84  data    OK
## # ... with 957 more rows

Are you still able to identify the different samples and replicates? You probably need to adjust the appropriate argument in your mapping function (have a look at the help page).

Solution

# We are missing the sample and replicate variables (i.e. the associated filename)
# We need to adjust the .id argument to get the name of each individual
# tibble in a new column.
list.files(file.path("data", "pcr"), full.names = TRUE) %>%
  set_names() %>% 
  map_df(read_delim, delim = " ", .id = "filename")

## # A tibble: 960 × 6
##              filename  well  gene    Ct  type  flag
##                 <chr> <chr> <chr> <dbl> <chr> <chr>
## 1 data/pcr/mlc1_1.csv    A1 gene1 33.60  data    OK
## 2 data/pcr/mlc1_1.csv    A2 gene2 22.42  data    OK
## 3 data/pcr/mlc1_1.csv    A3 gene3 31.84  data    OK
## # ... with 957 more rows
…
now we should use a function able to write .csv files and map it to the appropriate vector(s). If read_csv() is able to read .csv files, which would be the readr function able to write such a file?

Is writing a file to a disk a side-effect? What would be the appropriate purrr function?

Solution

list.files(file.path("data", "pcr"), full.names = TRUE) %>%
  map_df(read_delim, delim = " ", .id = "filename") %>%
  group_by(gene) %>%
  nest() %>%
  mutate(file_out = paste0(gene, ".csv"),
         file_out_path = file.path("data", "by_gene", file_out),
         walk2(data, file_out_path, write_csv))

## # A tibble: 96 × 5
##    gene              data  file_out          file_out_path
##   <chr>            <list>     <chr>                  <chr>
## 1 gene1 <tibble [10 × 5]> gene1.csv data/by_gene/gene1.csv
## 2 gene2 <tibble [10 × 5]> gene2.csv data/by_gene/gene2.csv
## 3 gene3 <tibble [10 × 5]> gene3.csv data/by_gene/gene3.csv
## # ... with 93 more rows, and 1 more variables: `walk2(data, file_out_path,
## #   write_csv)` <list>
…
